<svg xmlns="http://www.w3.org/2000/svg" width="23" height="23">
    <path fill="#6D7678" fill-rule="evenodd" d="M16.568 17.567c-1.944 0-3.219-.795-3.386-2.555-.499 1.958-1.831 2.555-3.636 2.555-2.414 0-4.44-1.902-4.44-5.732 0-3.859 1.777-6.243 4.968-6.243 1.693 0 2.747.681 3.217 1.759l.806-1.504h2.331v8.344h.002c0 .994.276 1.39.999 1.39 1.611 0 2.636-2.099 2.636-5.59 0-5.335-3.801-7.889-8.548-7.889-4.883 0-9.324 3.349-9.324 9.677 0 6.045 3.885 9.336 9.852 9.336 2.025 0 3.385-.227 5.465-.936l.446 1.9c-2.053.682-4.248.88-5.939.88C4.191 22.959 0 18.56 0 11.778 0 4.939 4.857.285 11.545.285 18.51.285 22.2 4.542 22.2 9.763c0 4.427-1.359 7.804-5.632 7.804zm-3.55-7.121c0-1.56-1.139-2.214-2.082-2.214-1.027 0-2.164.85-2.164 3.348 0 1.987.861 3.094 2.164 3.094.915 0 2.082-.596 2.082-2.242v-1.986z"/>
</svg>
